%YAML 1.1
%TAG !u! tag:unity3d.com,2011:
--- !u!114 &11400000
MonoBehaviour:
  m_ObjectHideFlags: 0
  m_CorrespondingSourceObject: {fileID: 0}
  m_PrefabInstance: {fileID: 0}
  m_PrefabAsset: {fileID: 0}
  m_GameObject: {fileID: 0}
  m_Enabled: 1
  m_EditorHideFlags: 0
  m_Script: {fileID: -2115301841, guid: c49f2b3ca212b47fc9cd8ce655177c89, type: 3}
  m_Name: FacebookSettings
  m_EditorClassIdentifier: 
  selectedAppIndex: 0
  clientTokens:
  - 7b9de24ac2438e25724cfc12e40f3264
  appIds:
  - 2077895055932440
  appLabels:
  - App Name
  cookie: 1
  logging: 1
  status: 1
  xfbml: 0
  frictionlessRequests: 1
  androidKeystorePath: C:\Users\lvs\Documents\git\wheel-of-fortune\WheelOfFortune\WheelOfFortune.keystore
  iosURLSuffix: 
  appLinkSchemes:
  - list: []
  uploadAccessToken: 
  autoLogAppEventsEnabled: 1
  advertiserIDCollectionEnabled: 1
