%YAML 1.1
%TAG !u! tag:unity3d.com,2011:
--- !u!128 &12800000
Font:
  m_ObjectHideFlags: 0
  m_CorrespondingSourceObject: {fileID: 0}
  m_PrefabInstance: {fileID: 0}
  m_PrefabAsset: {fileID: 0}
  m_Name: MONTSERRAT-BOLD_se_rep
  serializedVersion: 5
  m_LineSpacing: 43.2
  m_DefaultMaterial: {fileID: 2100000, guid: 37765e68b1515644c974bab4251b3c03, type: 2}
  m_FontSize: 36
  m_Texture: {fileID: 2800000, guid: e3ff145dc3196f6429c620672c6bb2f9, type: 3}
  m_AsciiStartOffset: 0
  m_Tracking: 1
  m_CharacterSpacing: 0
  m_CharacterPadding: 20
  m_ConvertCase: 0
  m_CharacterRects:
  - serializedVersion: 2
    index: 32
    uv:
      serializedVersion: 2
      x: 0
      y: 0
      width: 0.0390625
      height: 0.078125
    vert:
      serializedVersion: 2
      x: -20
      y: 20
      width: 40
      height: -40
    advance: 8
    flipped: 0
  - serializedVersion: 2
    index: 33
    uv:
      serializedVersion: 2
      x: 0.67578125
      y: 0
      width: 0.045898438
      height: 0.13085938
    vert:
      serializedVersion: 2
      x: -19
      y: 46
      width: 47
      height: -67
    advance: 9
    flipped: 0
  - serializedVersion: 2
    index: 34
    uv:
      serializedVersion: 2
      x: 0.32421875
      y: 0
      width: 0.05078125
      height: 0.099609375
    vert:
      serializedVersion: 2
      x: -18
      y: 46
      width: 52
      height: -51
    advance: 16
    flipped: 0
  - serializedVersion: 2
    index: 35
    uv:
      serializedVersion: 2
      x: 0.12695312
      y: 0.625
      width: 0.064453125
      height: 0.12890625
    vert:
      serializedVersion: 2
      x: -20
      y: 46
      width: 66
      height: -66
    advance: 26
    flipped: 0
  - serializedVersion: 2
    index: 36
    uv:
      serializedVersion: 2
      x: 0
      y: 0.640625
      width: 0.061523438
      height: 0.15039062
    vert:
      serializedVersion: 2
      x: -20
      y: 51
      width: 63
      height: -77
    advance: 23
    flipped: 0
  - serializedVersion: 2
    index: 37
    uv:
      serializedVersion: 2
      x: 0.45507812
      y: 0.6484375
      width: 0.07324219
      height: 0.13085938
    vert:
      serializedVersion: 2
      x: -19
      y: 46
      width: 75
      height: -67
    advance: 37
    flipped: 0
  - serializedVersion: 2
    index: 38
    uv:
      serializedVersion: 2
      x: 0.5917969
      y: 0.5390625
      width: 0.0625
      height: 0.1328125
    vert:
      serializedVersion: 2
      x: -19
      y: 46
      width: 64
      height: -68
    advance: 25
    flipped: 0
  - serializedVersion: 2
    index: 39
    uv:
      serializedVersion: 2
      x: 0.1328125
      y: 0
      width: 0.043945312
      height: 0.099609375
    vert:
      serializedVersion: 2
      x: -18
      y: 46
      width: 45
      height: -51
    advance: 9
    flipped: 0
  - serializedVersion: 2
    index: 40
    uv:
      serializedVersion: 2
      x: 0.765625
      y: 0.1171875
      width: 0.049804688
      height: 0.140625
    vert:
      serializedVersion: 2
      x: -18
      y: 47
      width: 51
      height: -72
    advance: 12
    flipped: 0
  - serializedVersion: 2
    index: 41
    uv:
      serializedVersion: 2
      x: 0.5761719
      y: 0.1015625
      width: 0.049804688
      height: 0.140625
    vert:
      serializedVersion: 2
      x: -19
      y: 47
      width: 51
      height: -72
    advance: 13
    flipped: 0
  - serializedVersion: 2
    index: 42
    uv:
      serializedVersion: 2
      x: 0.47851562
      y: 0
      width: 0.051757812
      height: 0.103515625
    vert:
      serializedVersion: 2
      x: -20
      y: 46
      width: 53
      height: -53
    advance: 14
    flipped: 0
  - serializedVersion: 2
    index: 43
    uv:
      serializedVersion: 2
      x: 0.9199219
      y: 0
      width: 0.055664062
      height: 0.111328125
    vert:
      serializedVersion: 2
      x: -19
      y: 40
      width: 57
      height: -57
    advance: 18
    flipped: 0
  - serializedVersion: 2
    index: 44
    uv:
      serializedVersion: 2
      x: 0.22460938
      y: 0
      width: 0.046875
      height: 0.09765625
    vert:
      serializedVersion: 2
      x: -20
      y: 26
      width: 48
      height: -50
    advance: 9
    flipped: 0
  - serializedVersion: 2
    index: 45
    uv:
      serializedVersion: 2
      x: 0.083984375
      y: 0
      width: 0.049804688
      height: 0.0859375
    vert:
      serializedVersion: 2
      x: -19
      y: 33
      width: 51
      height: -44
    advance: 13
    flipped: 0
  - serializedVersion: 2
    index: 46
    uv:
      serializedVersion: 2
      x: 0.0390625
      y: 0
      width: 0.045898438
      height: 0.091796875
    vert:
      serializedVersion: 2
      x: -19
      y: 26
      width: 47
      height: -47
    advance: 9
    flipped: 0
  - serializedVersion: 2
    index: 47
    uv:
      serializedVersion: 2
      x: 0.53515625
      y: 0.5078125
      width: 0.056640625
      height: 0.14453125
    vert:
      serializedVersion: 2
      x: -22
      y: 50
      width: 58
      height: -74
    advance: 13
    flipped: 0
  - serializedVersion: 2
    index: 48
    uv:
      serializedVersion: 2
      x: 0.8417969
      y: 0.4765625
      width: 0.061523438
      height: 0.13085938
    vert:
      serializedVersion: 2
      x: -19
      y: 46
      width: 63
      height: -67
    advance: 25
    flipped: 0
  - serializedVersion: 2
    index: 49
    uv:
      serializedVersion: 2
      x: 0.27148438
      y: 0.09375
      width: 0.05078125
      height: 0.12890625
    vert:
      serializedVersion: 2
      x: -20
      y: 46
      width: 52
      height: -66
    advance: 15
    flipped: 0
  - serializedVersion: 2
    index: 50
    uv:
      serializedVersion: 2
      x: 0.60546875
      y: 0.2734375
      width: 0.059570312
      height: 0.12890625
    vert:
      serializedVersion: 2
      x: -20
      y: 46
      width: 61
      height: -66
    advance: 22
    flipped: 0
  - serializedVersion: 2
    index: 51
    uv:
      serializedVersion: 2
      x: 0.72265625
      y: 0.2578125
      width: 0.05859375
      height: 0.13085938
    vert:
      serializedVersion: 2
      x: -21
      y: 46
      width: 60
      height: -67
    advance: 20
    flipped: 0
  - serializedVersion: 2
    index: 52
    uv:
      serializedVersion: 2
      x: 0.4140625
      y: 0.3671875
      width: 0.061523438
      height: 0.12890625
    vert:
      serializedVersion: 2
      x: -20
      y: 46
      width: 63
      height: -66
    advance: 23
    flipped: 0
  - serializedVersion: 2
    index: 53
    uv:
      serializedVersion: 2
      x: 0.87109375
      y: 0.34375
      width: 0.059570312
      height: 0.13085938
    vert:
      serializedVersion: 2
      x: -20
      y: 46
      width: 61
      height: -67
    advance: 21
    flipped: 0
  - serializedVersion: 2
    index: 54
    uv:
      serializedVersion: 2
      x: 0.35546875
      y: 0.3203125
      width: 0.059570312
      height: 0.13085938
    vert:
      serializedVersion: 2
      x: -19
      y: 46
      width: 61
      height: -67
    advance: 23
    flipped: 0
  - serializedVersion: 2
    index: 55
    uv:
      serializedVersion: 2
      x: 0.296875
      y: 0.234375
      width: 0.05859375
      height: 0.12890625
    vert:
      serializedVersion: 2
      x: -19
      y: 46
      width: 60
      height: -66
    advance: 21
    flipped: 0
  - serializedVersion: 2
    index: 56
    uv:
      serializedVersion: 2
      x: 0
      y: 0.328125
      width: 0.059570312
      height: 0.13085938
    vert:
      serializedVersion: 2
      x: -19
      y: 46
      width: 61
      height: -67
    advance: 23
    flipped: 0
  - serializedVersion: 2
    index: 57
    uv:
      serializedVersion: 2
      x: 0.115234375
      y: 0.3359375
      width: 0.059570312
      height: 0.13085938
    vert:
      serializedVersion: 2
      x: -19
      y: 46
      width: 61
      height: -67
    advance: 23
    flipped: 0
  - serializedVersion: 2
    index: 58
    uv:
      serializedVersion: 2
      x: 0.375
      y: 0
      width: 0.045898438
      height: 0.11328125
    vert:
      serializedVersion: 2
      x: -19
      y: 37
      width: 47
      height: -58
    advance: 9
    flipped: 0
  - serializedVersion: 2
    index: 59
    uv:
      serializedVersion: 2
      x: 0.5292969
      y: 0
      width: 0.046875
      height: 0.119140625
    vert:
      serializedVersion: 2
      x: -20
      y: 37
      width: 48
      height: -61
    advance: 9
    flipped: 0
  - serializedVersion: 2
    index: 60
    uv:
      serializedVersion: 2
      x: 0.41992188
      y: 0.0859375
      width: 0.055664062
      height: 0.115234375
    vert:
      serializedVersion: 2
      x: -19
      y: 41
      width: 57
      height: -59
    advance: 18
    flipped: 0
  - serializedVersion: 2
    index: 61
    uv:
      serializedVersion: 2
      x: 0.5761719
      y: 0
      width: 0.055664062
      height: 0.103515625
    vert:
      serializedVersion: 2
      x: -19
      y: 38
      width: 57
      height: -53
    advance: 18
    flipped: 0
  - serializedVersion: 2
    index: 62
    uv:
      serializedVersion: 2
      x: 0
      y: 0.09375
      width: 0.055664062
      height: 0.1171875
    vert:
      serializedVersion: 2
      x: -19
      y: 42
      width: 57
      height: -60
    advance: 18
    flipped: 0
  - serializedVersion: 2
    index: 63
    uv:
      serializedVersion: 2
      x: 0.4921875
      y: 0.2265625
      width: 0.055664062
      height: 0.13085938
    vert:
      serializedVersion: 2
      x: -20
      y: 46
      width: 57
      height: -67
    advance: 17
    flipped: 0
  - serializedVersion: 2
    index: 64
    uv:
      serializedVersion: 2
      x: 0.5957031
      y: 0.671875
      width: 0.07128906
      height: 0.140625
    vert:
      serializedVersion: 2
      x: -20
      y: 46
      width: 73
      height: -72
    advance: 33
    flipped: 0
  - serializedVersion: 2
    index: 65
    uv:
      serializedVersion: 2
      x: 0.32226562
      y: 0.6328125
      width: 0.06738281
      height: 0.12890625
    vert:
      serializedVersion: 2
      x: -21
      y: 46
      width: 69
      height: -66
    advance: 28
    flipped: 0
  - serializedVersion: 2
    index: 66
    uv:
      serializedVersion: 2
      x: 0.53515625
      y: 0.375
      width: 0.061523438
      height: 0.12890625
    vert:
      serializedVersion: 2
      x: -18
      y: 46
      width: 63
      height: -66
    advance: 26
    flipped: 0
  - serializedVersion: 2
    index: 67
    uv:
      serializedVersion: 2
      x: 0.6542969
      y: 0.5390625
      width: 0.06347656
      height: 0.13085938
    vert:
      serializedVersion: 2
      x: -20
      y: 46
      width: 65
      height: -67
    advance: 25
    flipped: 0
  - serializedVersion: 2
    index: 68
    uv:
      serializedVersion: 2
      x: 0
      y: 0.5078125
      width: 0.06347656
      height: 0.12890625
    vert:
      serializedVersion: 2
      x: -18
      y: 46
      width: 65
      height: -66
    advance: 28
    flipped: 0
  - serializedVersion: 2
    index: 69
    uv:
      serializedVersion: 2
      x: 0.6640625
      y: 0.2734375
      width: 0.059570312
      height: 0.12890625
    vert:
      serializedVersion: 2
      x: -18
      y: 46
      width: 61
      height: -66
    advance: 24
    flipped: 0
  - serializedVersion: 2
    index: 70
    uv:
      serializedVersion: 2
      x: 0.546875
      y: 0.2421875
      width: 0.05859375
      height: 0.12890625
    vert:
      serializedVersion: 2
      x: -18
      y: 46
      width: 60
      height: -66
    advance: 22
    flipped: 0
  - serializedVersion: 2
    index: 71
    uv:
      serializedVersion: 2
      x: 0.19140625
      y: 0.625
      width: 0.064453125
      height: 0.13085938
    vert:
      serializedVersion: 2
      x: -20
      y: 46
      width: 66
      height: -67
    advance: 27
    flipped: 0
  - serializedVersion: 2
    index: 72
    uv:
      serializedVersion: 2
      x: 0.90234375
      y: 0.4921875
      width: 0.0625
      height: 0.12890625
    vert:
      serializedVersion: 2
      x: -18
      y: 46
      width: 64
      height: -66
    advance: 28
    flipped: 0
  - serializedVersion: 2
    index: 73
    uv:
      serializedVersion: 2
      x: 0.6308594
      y: 0
      width: 0.045898438
      height: 0.12890625
    vert:
      serializedVersion: 2
      x: -18
      y: 46
      width: 47
      height: -66
    advance: 11
    flipped: 0
  - serializedVersion: 2
    index: 74
    uv:
      serializedVersion: 2
      x: 0.9316406
      y: 0.2265625
      width: 0.057617188
      height: 0.13085938
    vert:
      serializedVersion: 2
      x: -21
      y: 46
      width: 59
      height: -67
    advance: 19
    flipped: 0
  - serializedVersion: 2
    index: 75
    uv:
      serializedVersion: 2
      x: 0.41601562
      y: 0.5
      width: 0.06347656
      height: 0.12890625
    vert:
      serializedVersion: 2
      x: -18
      y: 46
      width: 65
      height: -66
    advance: 27
    flipped: 0
  - serializedVersion: 2
    index: 76
    uv:
      serializedVersion: 2
      x: 0.8144531
      y: 0.2265625
      width: 0.056640625
      height: 0.12890625
    vert:
      serializedVersion: 2
      x: -18
      y: 46
      width: 58
      height: -66
    advance: 20
    flipped: 0
  - serializedVersion: 2
    index: 77
    uv:
      serializedVersion: 2
      x: 0.25585938
      y: 0.6328125
      width: 0.06738281
      height: 0.12890625
    vert:
      serializedVersion: 2
      x: -18
      y: 46
      width: 69
      height: -66
    advance: 33
    flipped: 0
  - serializedVersion: 2
    index: 78
    uv:
      serializedVersion: 2
      x: 0.77734375
      y: 0.4921875
      width: 0.0625
      height: 0.12890625
    vert:
      serializedVersion: 2
      x: -18
      y: 46
      width: 64
      height: -66
    advance: 28
    flipped: 0
  - serializedVersion: 2
    index: 79
    uv:
      serializedVersion: 2
      x: 0.38867188
      y: 0.6328125
      width: 0.06738281
      height: 0.13085938
    vert:
      serializedVersion: 2
      x: -20
      y: 46
      width: 69
      height: -67
    advance: 29
    flipped: 0
  - serializedVersion: 2
    index: 80
    uv:
      serializedVersion: 2
      x: 0.78125
      y: 0.359375
      width: 0.060546875
      height: 0.12890625
    vert:
      serializedVersion: 2
      x: -18
      y: 46
      width: 62
      height: -66
    advance: 24
    flipped: 0
  - serializedVersion: 2
    index: 81
    uv:
      serializedVersion: 2
      x: 0.52734375
      y: 0.671875
      width: 0.068359375
      height: 0.140625
    vert:
      serializedVersion: 2
      x: -20
      y: 46
      width: 70
      height: -72
    advance: 29
    flipped: 0
  - serializedVersion: 2
    index: 82
    uv:
      serializedVersion: 2
      x: 0.5957031
      y: 0.40625
      width: 0.061523438
      height: 0.12890625
    vert:
      serializedVersion: 2
      x: -18
      y: 46
      width: 63
      height: -66
    advance: 26
    flipped: 0
  - serializedVersion: 2
    index: 83
    uv:
      serializedVersion: 2
      x: 0.23242188
      y: 0.4765625
      width: 0.061523438
      height: 0.13085938
    vert:
      serializedVersion: 2
      x: -20
      y: 46
      width: 63
      height: -67
    advance: 23
    flipped: 0
  - serializedVersion: 2
    index: 84
    uv:
      serializedVersion: 2
      x: 0.9296875
      y: 0.359375
      width: 0.060546875
      height: 0.12890625
    vert:
      serializedVersion: 2
      x: -20
      y: 46
      width: 62
      height: -66
    advance: 22
    flipped: 0
  - serializedVersion: 2
    index: 85
    uv:
      serializedVersion: 2
      x: 0.35351562
      y: 0.5
      width: 0.0625
      height: 0.13085938
    vert:
      serializedVersion: 2
      x: -18
      y: 46
      width: 64
      height: -67
    advance: 27
    flipped: 0
  - serializedVersion: 2
    index: 86
    uv:
      serializedVersion: 2
      x: 0.8535156
      y: 0.625
      width: 0.06640625
      height: 0.12890625
    vert:
      serializedVersion: 2
      x: -21
      y: 46
      width: 68
      height: -66
    advance: 26
    flipped: 0
  - serializedVersion: 2
    index: 87
    uv:
      serializedVersion: 2
      x: 0.9199219
      y: 0.7421875
      width: 0.07910156
      height: 0.12890625
    vert:
      serializedVersion: 2
      x: -21
      y: 46
      width: 81
      height: -66
    advance: 39
    flipped: 0
  - serializedVersion: 2
    index: 88
    uv:
      serializedVersion: 2
      x: 0.7167969
      y: 0.625
      width: 0.06542969
      height: 0.12890625
    vert:
      serializedVersion: 2
      x: -20
      y: 46
      width: 67
      height: -66
    advance: 26
    flipped: 0
  - serializedVersion: 2
    index: 89
    uv:
      serializedVersion: 2
      x: 0.0625
      y: 0.6015625
      width: 0.064453125
      height: 0.12890625
    vert:
      serializedVersion: 2
      x: -21
      y: 46
      width: 66
      height: -66
    advance: 24
    flipped: 0
  - serializedVersion: 2
    index: 90
    uv:
      serializedVersion: 2
      x: 0.47460938
      y: 0.3671875
      width: 0.061523438
      height: 0.12890625
    vert:
      serializedVersion: 2
      x: -19
      y: 46
      width: 63
      height: -66
    advance: 24
    flipped: 0
  - serializedVersion: 2
    index: 91
    uv:
      serializedVersion: 2
      x: 0.6738281
      y: 0.1328125
      width: 0.049804688
      height: 0.140625
    vert:
      serializedVersion: 2
      x: -18
      y: 47
      width: 51
      height: -72
    advance: 13
    flipped: 0
  - serializedVersion: 2
    index: 92
    uv:
      serializedVersion: 2
      x: 0.47851562
      y: 0.5
      width: 0.056640625
      height: 0.14453125
    vert:
      serializedVersion: 2
      x: -20
      y: 50
      width: 58
      height: -74
    advance: 16
    flipped: 0
  - serializedVersion: 2
    index: 93
    uv:
      serializedVersion: 2
      x: 0.625
      y: 0.1328125
      width: 0.049804688
      height: 0.140625
    vert:
      serializedVersion: 2
      x: -17
      y: 47
      width: 51
      height: -72
    advance: 16
    flipped: 0
  - serializedVersion: 2
    index: 94
    uv:
      serializedVersion: 2
      x: 0.86328125
      y: 0
      width: 0.057617188
      height: 0.107421875
    vert:
      serializedVersion: 2
      x: -19
      y: 39
      width: 59
      height: -55
    advance: 21
    flipped: 0
  - serializedVersion: 2
    index: 95
    uv:
      serializedVersion: 2
      x: 0.41992188
      y: 0
      width: 0.059570312
      height: 0.087890625
    vert:
      serializedVersion: 2
      x: -20
      y: 17
      width: 61
      height: -45
    advance: 21
    flipped: 0
  - serializedVersion: 2
    index: 96
    uv:
      serializedVersion: 2
      x: 0.17578125
      y: 0
      width: 0.048828125
      height: 0.091796875
    vert:
      serializedVersion: 2
      x: -19
      y: 48
      width: 50
      height: -47
    advance: 13
    flipped: 0
  - serializedVersion: 2
    index: 97
    uv:
      serializedVersion: 2
      x: 0.86328125
      y: 0.109375
      width: 0.05859375
      height: 0.119140625
    vert:
      serializedVersion: 2
      x: -20
      y: 40
      width: 60
      height: -61
    advance: 22
    flipped: 0
  - serializedVersion: 2
    index: 98
    uv:
      serializedVersion: 2
      x: 0.65625
      y: 0.40625
      width: 0.060546875
      height: 0.1328125
    vert:
      serializedVersion: 2
      x: -18
      y: 47
      width: 62
      height: -68
    advance: 25
    flipped: 0
  - serializedVersion: 2
    index: 99
    uv:
      serializedVersion: 2
      x: 0.921875
      y: 0.109375
      width: 0.05859375
      height: 0.119140625
    vert:
      serializedVersion: 2
      x: -20
      y: 40
      width: 60
      height: -61
    advance: 20
    flipped: 0
  - serializedVersion: 2
    index: 100
    uv:
      serializedVersion: 2
      x: 0.29296875
      y: 0.5
      width: 0.061523438
      height: 0.1328125
    vert:
      serializedVersion: 2
      x: -20
      y: 47
      width: 63
      height: -68
    advance: 25
    flipped: 0
  - serializedVersion: 2
    index: 101
    uv:
      serializedVersion: 2
      x: 0.23632812
      y: 0.2265625
      width: 0.060546875
      height: 0.119140625
    vert:
      serializedVersion: 2
      x: -20
      y: 40
      width: 62
      height: -61
    advance: 22
    flipped: 0
  - serializedVersion: 2
    index: 102
    uv:
      serializedVersion: 2
      x: 0.060546875
      y: 0.2265625
      width: 0.0546875
      height: 0.13085938
    vert:
      serializedVersion: 2
      x: -19
      y: 47
      width: 56
      height: -67
    advance: 14
    flipped: 0
  - serializedVersion: 2
    index: 103
    uv:
      serializedVersion: 2
      x: 0.7167969
      y: 0.40625
      width: 0.060546875
      height: 0.1328125
    vert:
      serializedVersion: 2
      x: -20
      y: 40
      width: 62
      height: -68
    advance: 23
    flipped: 0
  - serializedVersion: 2
    index: 104
    uv:
      serializedVersion: 2
      x: 0.17382812
      y: 0.359375
      width: 0.059570312
      height: 0.13085938
    vert:
      serializedVersion: 2
      x: -18
      y: 47
      width: 61
      height: -67
    advance: 24
    flipped: 0
  - serializedVersion: 2
    index: 105
    uv:
      serializedVersion: 2
      x: 0.8183594
      y: 0
      width: 0.045898438
      height: 0.13476562
    vert:
      serializedVersion: 2
      x: -18
      y: 49
      width: 47
      height: -69
    advance: 11
    flipped: 0
  - serializedVersion: 2
    index: 106
    uv:
      serializedVersion: 2
      x: 0.05859375
      y: 0.359375
      width: 0.052734375
      height: 0.15039062
    vert:
      serializedVersion: 2
      x: -24
      y: 49
      width: 54
      height: -77
    advance: 11
    flipped: 0
  - serializedVersion: 2
    index: 107
    uv:
      serializedVersion: 2
      x: 0.23632812
      y: 0.34375
      width: 0.059570312
      height: 0.13085938
    vert:
      serializedVersion: 2
      x: -18
      y: 47
      width: 61
      height: -67
    advance: 23
    flipped: 0
  - serializedVersion: 2
    index: 108
    uv:
      serializedVersion: 2
      x: 0.7207031
      y: 0
      width: 0.045898438
      height: 0.13085938
    vert:
      serializedVersion: 2
      x: -18
      y: 47
      width: 47
      height: -67
    advance: 12
    flipped: 0
  - serializedVersion: 2
    index: 109
    uv:
      serializedVersion: 2
      x: 0.78125
      y: 0.625
      width: 0.072265625
      height: 0.1171875
    vert:
      serializedVersion: 2
      x: -18
      y: 40
      width: 74
      height: -60
    advance: 37
    flipped: 0
  - serializedVersion: 2
    index: 110
    uv:
      serializedVersion: 2
      x: 0.32226562
      y: 0.1171875
      width: 0.059570312
      height: 0.1171875
    vert:
      serializedVersion: 2
      x: -18
      y: 40
      width: 61
      height: -60
    advance: 24
    flipped: 0
  - serializedVersion: 2
    index: 111
    uv:
      serializedVersion: 2
      x: 0.87109375
      y: 0.2265625
      width: 0.061523438
      height: 0.119140625
    vert:
      serializedVersion: 2
      x: -20
      y: 40
      width: 63
      height: -61
    advance: 23
    flipped: 0
  - serializedVersion: 2
    index: 112
    uv:
      serializedVersion: 2
      x: 0.29492188
      y: 0.3671875
      width: 0.060546875
      height: 0.13085938
    vert:
      serializedVersion: 2
      x: -18
      y: 40
      width: 62
      height: -67
    advance: 25
    flipped: 0
  - serializedVersion: 2
    index: 113
    uv:
      serializedVersion: 2
      x: 0.111328125
      y: 0.46875
      width: 0.061523438
      height: 0.13085938
    vert:
      serializedVersion: 2
      x: -20
      y: 40
      width: 63
      height: -67
    advance: 25
    flipped: 0
  - serializedVersion: 2
    index: 114
    uv:
      serializedVersion: 2
      x: 0.765625
      y: 0
      width: 0.052734375
      height: 0.1171875
    vert:
      serializedVersion: 2
      x: -18
      y: 40
      width: 54
      height: -60
    advance: 15
    flipped: 0
  - serializedVersion: 2
    index: 115
    uv:
      serializedVersion: 2
      x: 0.18359375
      y: 0.1015625
      width: 0.056640625
      height: 0.119140625
    vert:
      serializedVersion: 2
      x: -20
      y: 40
      width: 58
      height: -61
    advance: 18
    flipped: 0
  - serializedVersion: 2
    index: 116
    uv:
      serializedVersion: 2
      x: 0.47460938
      y: 0.1015625
      width: 0.0546875
      height: 0.12695312
    vert:
      serializedVersion: 2
      x: -20
      y: 44
      width: 56
      height: -65
    advance: 16
    flipped: 0
  - serializedVersion: 2
    index: 117
    uv:
      serializedVersion: 2
      x: 0.12695312
      y: 0.21875
      width: 0.059570312
      height: 0.119140625
    vert:
      serializedVersion: 2
      x: -19
      y: 40
      width: 61
      height: -61
    advance: 24
    flipped: 0
  - serializedVersion: 2
    index: 118
    uv:
      serializedVersion: 2
      x: 0.38085938
      y: 0.203125
      width: 0.060546875
      height: 0.1171875
    vert:
      serializedVersion: 2
      x: -21
      y: 40
      width: 62
      height: -60
    advance: 21
    flipped: 0
  - serializedVersion: 2
    index: 119
    uv:
      serializedVersion: 2
      x: 0.9199219
      y: 0.625
      width: 0.07324219
      height: 0.1171875
    vert:
      serializedVersion: 2
      x: -21
      y: 40
      width: 75
      height: -60
    advance: 34
    flipped: 0
  - serializedVersion: 2
    index: 120
    uv:
      serializedVersion: 2
      x: 0
      y: 0.2109375
      width: 0.060546875
      height: 0.1171875
    vert:
      serializedVersion: 2
      x: -20
      y: 40
      width: 62
      height: -60
    advance: 22
    flipped: 0
  - serializedVersion: 2
    index: 121
    uv:
      serializedVersion: 2
      x: 0.171875
      y: 0.4921875
      width: 0.061523438
      height: 0.1328125
    vert:
      serializedVersion: 2
      x: -21
      y: 40
      width: 63
      height: -68
    advance: 21
    flipped: 0
  - serializedVersion: 2
    index: 122
    uv:
      serializedVersion: 2
      x: 0.12695312
      y: 0.1015625
      width: 0.056640625
      height: 0.1171875
    vert:
      serializedVersion: 2
      x: -19
      y: 40
      width: 58
      height: -60
    advance: 20
    flipped: 0
  - serializedVersion: 2
    index: 123
    uv:
      serializedVersion: 2
      x: 0.44140625
      y: 0.2265625
      width: 0.051757812
      height: 0.140625
    vert:
      serializedVersion: 2
      x: -20
      y: 47
      width: 53
      height: -72
    advance: 13
    flipped: 0
  - serializedVersion: 2
    index: 124
    uv:
      serializedVersion: 2
      x: 0.083984375
      y: 0.0859375
      width: 0.043945312
      height: 0.14257812
    vert:
      serializedVersion: 2
      x: -17
      y: 49
      width: 45
      height: -73
    advance: 11
    flipped: 0
  - serializedVersion: 2
    index: 125
    uv:
      serializedVersion: 2
      x: 0.18554688
      y: 0.21875
      width: 0.05078125
      height: 0.140625
    vert:
      serializedVersion: 2
      x: -18
      y: 47
      width: 52
      height: -72
    advance: 14
    flipped: 0
  - serializedVersion: 2
    index: 126
    uv:
      serializedVersion: 2
      x: 0.27148438
      y: 0
      width: 0.053710938
      height: 0.091796875
    vert:
      serializedVersion: 2
      x: -18
      y: 35
      width: 55
      height: -47
    advance: 18
    flipped: 0
  m_KerningValues: []
  m_PixelScale: 0.1
  m_FontData: 
  m_Ascent: 36.216
  m_Descent: -6.9839997
  m_DefaultStyle: 0
  m_FontNames:
  - Montserrat
  m_FallbackFonts:
  - {fileID: 12800000, guid: e41c5b515578fe241a501e285da47596, type: 3}
  - {fileID: 12800000, guid: 8303e4f16b6a58a42999a97934e1e4e3, type: 3}
  - {fileID: 12800000, guid: 7a3d0ca5d10c7964fb352ddad552c37c, type: 3}
  - {fileID: 12800000, guid: c6f173d6c80f6034997cfefefe6f3db6, type: 3}
  - {fileID: 12800000, guid: fd358518cd67b514587e8cb00c13b214, type: 3}
  - {fileID: 12800000, guid: c29da9ac01e7bbf4db7771ecdc4a2796, type: 3}
  m_FontRenderingMode: 0
  m_UseLegacyBoundsCalculation: 0
  m_ShouldRoundAdvanceValue: 1
